Tue Sep 24 02:16:02 2013
Errors file /u100/app/MKTGBI/ormktgbi/oracle/.../MKTGBI j000 9498.trc:
ORA-12012: error on auto execute of job 365
ORA-00911: invalid character
ORA-06512: at "GMD TARGET.BIEE PKG FUSION", line 1055
ORA-06512: at "GMD TARGET.BIEE PKG FUSION", line 1136
ORA-06512: at line 1
Tue Sep 24 02:32:08 2013
Time drift detected. Please check VKTM trace file for more details.
